...
----------------------------------------------------------------------
Ran 3 tests in 0.001s

OK
Name               Stmts   Miss Branch BrPart  Cover   Missing
--------------------------------------------------------------
Diplomacy.py         112      5     64      8    93%   67, 92-94, 111, 127, 17->20, 47->exit, 64->67, 91->92, 91->94, 110->111, 126->127, 130->128
TestDiplomacy.py      21      0      2      1    96%   32->exit
--------------------------------------------------------------
TOTAL                133      5     66      9    93%
