..................
----------------------------------------------------------------------
Ran 18 tests in 0.306s


OK
Name               Stmts   Miss Branch BrPart  Cover   Missing
--------------------------------------------------------------
Diplomacy.py          65      0     48      0   100%
TestDiplomacy.py      90      0      0      0   100%
--------------------------------------------------------------
TOTAL                155      0     48      0   100%
